%YAML 1.1
%TAG !u! tag:unity3d.com,2011:
--- !u!29 &1
OcclusionCullingSettings:
  m_ObjectHideFlags: 0
  serializedVersion: 2
  m_OcclusionBakeSettings:
    smallestOccluder: 5
    smallestHole: 0.25
    backfaceThreshold: 100
  m_SceneGUID: 00000000000000000000000000000000
  m_OcclusionCullingData: {fileID: 0}
--- !u!104 &2
RenderSettings:
  m_ObjectHideFlags: 0
  serializedVersion: 9
  m_Fog: 0
  m_FogColor: {r: 0.8720264, g: 0.90313804, b: 0.9338235, a: 1}
  m_FogMode: 3
  m_FogDensity: 0.01
  m_LinearFogStart: 0
  m_LinearFogEnd: 300
  m_AmbientSkyColor: {r: 0.212, g: 0.227, b: 0.259, a: 1}
  m_AmbientEquatorColor: {r: 0.114, g: 0.125, b: 0.133, a: 1}
  m_AmbientGroundColor: {r: 0.047, g: 0.043, b: 0.035, a: 1}
  m_AmbientIntensity: 1
  m_AmbientMode: 0
  m_SubtractiveShadowColor: {r: 0.42, g: 0.478, b: 0.627, a: 1}
  m_SkyboxMaterial: {fileID: 0}
  m_HaloStrength: 0.5
  m_FlareStrength: 1
  m_FlareFadeSpeed: 3
  m_HaloTexture: {fileID: 0}
  m_SpotCookie: {fileID: 10001, guid: 0000000000000000e000000000000000, type: 0}
  m_DefaultReflectionMode: 0
  m_DefaultReflectionResolution: 128
  m_ReflectionBounces: 1
  m_ReflectionIntensity: 1
  m_CustomReflection: {fileID: 0}
  m_Sun: {fileID: 0}
  m_IndirectSpecularColor: {r: 0, g: 0, b: 0, a: 1}
  m_UseRadianceAmbientProbe: 0
--- !u!157 &3
LightmapSettings:
  m_ObjectHideFlags: 0
  serializedVersion: 11
  m_GIWorkflowMode: 0
  m_GISettings:
    serializedVersion: 2
    m_BounceScale: 1
    m_IndirectOutputScale: 1
    m_AlbedoBoost: 1
    m_TemporalCoherenceThreshold: 1
    m_EnvironmentLightingMode: 0
    m_EnableBakedLightmaps: 0
    m_EnableRealtimeLightmaps: 0
  m_LightmapEditorSettings:
    serializedVersion: 10
    m_Resolution: 2
    m_BakeResolution: 40
    m_AtlasSize: 1024
    m_AO: 0
    m_AOMaxDistance: 1
    m_CompAOExponent: 1
    m_CompAOExponentDirect: 0
    m_Padding: 2
    m_LightmapParameters: {fileID: 0}
    m_LightmapsBakeMode: 1
    m_TextureCompression: 1
    m_FinalGather: 0
    m_FinalGatherFiltering: 1
    m_FinalGatherRayCount: 256
    m_ReflectionCompression: 2
    m_MixedBakeMode: 1
    m_BakeBackend: 0
    m_PVRSampling: 1
    m_PVRDirectSampleCount: 32
    m_PVRSampleCount: 500
    m_PVRBounces: 2
    m_PVRFilterTypeDirect: 0
    m_PVRFilterTypeIndirect: 0
    m_PVRFilterTypeAO: 0
    m_PVRFilteringMode: 1
    m_PVRCulling: 1
    m_PVRFilteringGaussRadiusDirect: 1
    m_PVRFilteringGaussRadiusIndirect: 5
    m_PVRFilteringGaussRadiusAO: 2
    m_PVRFilteringAtrousPositionSigmaDirect: 0.5
    m_PVRFilteringAtrousPositionSigmaIndirect: 2
    m_PVRFilteringAtrousPositionSigmaAO: 1
    m_ShowResolutionOverlay: 1
  m_LightingDataAsset: {fileID: 0}
  m_UseShadowmask: 0
--- !u!196 &4
NavMeshSettings:
  serializedVersion: 2
  m_ObjectHideFlags: 0
  m_BuildSettings:
    serializedVersion: 2
    agentTypeID: 0
    agentRadius: 0.5
    agentHeight: 2
    agentSlope: 45
    agentClimb: 0.4
    ledgeDropHeight: 0
    maxJumpAcrossDistance: 0
    minRegionArea: 2
    manualCellSize: 0
    cellSize: 0.16666667
    manualTileSize: 0
    tileSize: 256
    accuratePlacement: 0
    debug:
      m_Flags: 0
  m_NavMeshData: {fileID: 0}
--- !u!1 &25405772 stripped
GameObject:
  m_PrefabParentObject: {fileID: 1472810229455558, guid: f7f898dac82d8e94f826a159117b84c5,
    type: 2}
  m_PrefabInternal: {fileID: 1729887161}
--- !u!65 &25405775
BoxCollider:
  m_ObjectHideFlags: 0
  m_PrefabParentObject: {fileID: 0}
  m_PrefabInternal: {fileID: 0}
  m_GameObject: {fileID: 25405772}
  m_Material: {fileID: 0}
  m_IsTrigger: 0
  m_Enabled: 0
  serializedVersion: 2
  m_Size: {x: 0.25, y: 6.183559, z: 0.25}
  m_Center: {x: 0, y: 3.0917795, z: 0}
--- !u!1 &102402548 stripped
GameObject:
  m_PrefabParentObject: {fileID: 1902687937586864, guid: f7f898dac82d8e94f826a159117b84c5,
    type: 2}
  m_PrefabInternal: {fileID: 1729887161}
--- !u!65 &102402551
BoxCollider:
  m_ObjectHideFlags: 0
  m_PrefabParentObject: {fileID: 0}
  m_PrefabInternal: {fileID: 0}
  m_GameObject: {fileID: 102402548}
  m_Material: {fileID: 0}
  m_IsTrigger: 0
  m_Enabled: 0
  serializedVersion: 2
  m_Size: {x: 0.25, y: 6.183559, z: 0.25}
  m_Center: {x: 0, y: 3.0917795, z: 0}
--- !u!1 &182067783 stripped
GameObject:
  m_PrefabParentObject: {fileID: 1137944209389166, guid: f7f898dac82d8e94f826a159117b84c5,
    type: 2}
  m_PrefabInternal: {fileID: 1729887161}
--- !u!65 &182067786
BoxCollider:
  m_ObjectHideFlags: 0
  m_PrefabParentObject: {fileID: 0}
  m_PrefabInternal: {fileID: 0}
  m_GameObject: {fileID: 182067783}
  m_Material: {fileID: 0}
  m_IsTrigger: 0
  m_Enabled: 0
  serializedVersion: 2
  m_Size: {x: 0.25, y: 6.183559, z: 0.25}
  m_Center: {x: 0, y: 3.0917795, z: 0}
--- !u!1001 &215579068
Prefab:
  m_ObjectHideFlags: 0
  serializedVersion: 2
  m_Modification:
    m_TransformParent: {fileID: 0}
    m_Modifications:
    - target: {fileID: 766346198, guid: 463285ecd6702471a909ba810832bf0e, type: 2}
      propertyPath: m_LocalPosition.x
      value: 0
      objectReference: {fileID: 0}
    - target: {fileID: 766346198, guid: 463285ecd6702471a909ba810832bf0e, type: 2}
      propertyPath: m_LocalPosition.y
      value: 0
      objectReference: {fileID: 0}
    - target: {fileID: 766346198, guid: 463285ecd6702471a909ba810832bf0e, type: 2}
      propertyPath: m_LocalPosition.z
      value: 0
      objectReference: {fileID: 0}
    - target: {fileID: 766346198, guid: 463285ecd6702471a909ba810832bf0e, type: 2}
      propertyPath: m_LocalRotation.x
      value: 0
      objectReference: {fileID: 0}
    - target: {fileID: 766346198, guid: 463285ecd6702471a909ba810832bf0e, type: 2}
      propertyPath: m_LocalRotation.y
      value: 0
      objectReference: {fileID: 0}
    - target: {fileID: 766346198, guid: 463285ecd6702471a909ba810832bf0e, type: 2}
      propertyPath: m_LocalRotation.z
      value: 0
      objectReference: {fileID: 0}
    - target: {fileID: 766346198, guid: 463285ecd6702471a909ba810832bf0e, type: 2}
      propertyPath: m_LocalRotation.w
      value: 1
      objectReference: {fileID: 0}
    - target: {fileID: 766346198, guid: 463285ecd6702471a909ba810832bf0e, type: 2}
      propertyPath: m_RootOrder
      value: 2
      objectReference: {fileID: 0}
    m_RemovedComponents: []
  m_ParentPrefab: {fileID: 100100000, guid: 463285ecd6702471a909ba810832bf0e, type: 2}
  m_IsPrefabParent: 0
--- !u!1001 &330507184
Prefab:
  m_ObjectHideFlags: 0
  serializedVersion: 2
  m_Modification:
    m_TransformParent: {fileID: 0}
    m_Modifications:
    - target: {fileID: 4591702072750176, guid: 9e2e1b8aad2984e908e6e6354bf13182, type: 2}
      propertyPath: m_LocalPosition.x
      value: 6.35
      objectReference: {fileID: 0}
    - target: {fileID: 4591702072750176, guid: 9e2e1b8aad2984e908e6e6354bf13182, type: 2}
      propertyPath: m_LocalPosition.y
      value: 2.07
      objectReference: {fileID: 0}
    - target: {fileID: 4591702072750176, guid: 9e2e1b8aad2984e908e6e6354bf13182, type: 2}
      propertyPath: m_LocalPosition.z
      value: 12.18
      objectReference: {fileID: 0}
    - target: {fileID: 4591702072750176, guid: 9e2e1b8aad2984e908e6e6354bf13182, type: 2}
      propertyPath: m_LocalRotation.x
      value: -0
      objectReference: {fileID: 0}
    - target: {fileID: 4591702072750176, guid: 9e2e1b8aad2984e908e6e6354bf13182, type: 2}
      propertyPath: m_LocalRotation.y
      value: 0.96642447
      objectReference: {fileID: 0}
    - target: {fileID: 4591702072750176, guid: 9e2e1b8aad2984e908e6e6354bf13182, type: 2}
      propertyPath: m_LocalRotation.z
      value: -0
      objectReference: {fileID: 0}
    - target: {fileID: 4591702072750176, guid: 9e2e1b8aad2984e908e6e6354bf13182, type: 2}
      propertyPath: m_LocalRotation.w
      value: -0.2569509
      objectReference: {fileID: 0}
    - target: {fileID: 4591702072750176, guid: 9e2e1b8aad2984e908e6e6354bf13182, type: 2}
      propertyPath: m_RootOrder
      value: 6
      objectReference: {fileID: 0}
    - target: {fileID: 1628794661614152, guid: 9e2e1b8aad2984e908e6e6354bf13182, type: 2}
      propertyPath: m_Name
      value: Message-2By1-2
      objectReference: {fileID: 0}
    m_RemovedComponents: []
  m_ParentPrefab: {fileID: 100100000, guid: 9e2e1b8aad2984e908e6e6354bf13182, type: 2}
  m_IsPrefabParent: 0
--- !u!1 &348684070 stripped
GameObject:
  m_PrefabParentObject: {fileID: 1214441308843276, guid: f7f898dac82d8e94f826a159117b84c5,
    type: 2}
  m_PrefabInternal: {fileID: 1729887161}
--- !u!65 &348684073
BoxCollider:
  m_ObjectHideFlags: 0
  m_PrefabParentObject: {fileID: 0}
  m_PrefabInternal: {fileID: 0}
  m_GameObject: {fileID: 348684070}
  m_Material: {fileID: 0}
  m_IsTrigger: 0
  m_Enabled: 0
  serializedVersion: 2
  m_Size: {x: 0.25, y: 6.183559, z: 0.25}
  m_Center: {x: 0, y: 3.0917795, z: 0}
--- !u!1 &348986935 stripped
GameObject:
  m_PrefabParentObject: {fileID: 1369956776986772, guid: f7f898dac82d8e94f826a159117b84c5,
    type: 2}
  m_PrefabInternal: {fileID: 1729887161}
--- !u!65 &348986938
BoxCollider:
  m_ObjectHideFlags: 0
  m_PrefabParentObject: {fileID: 0}
  m_PrefabInternal: {fileID: 0}
  m_GameObject: {fileID: 348986935}
  m_Material: {fileID: 0}
  m_IsTrigger: 0
  m_Enabled: 0
  serializedVersion: 2
  m_Size: {x: 0.25, y: 6.183559, z: 0.25}
  m_Center: {x: 0, y: 3.0917795, z: 0}
--- !u!1001 &375241430
Prefab:
  m_ObjectHideFlags: 0
  serializedVersion: 2
  m_Modification:
    m_TransformParent: {fileID: 0}
    m_Modifications:
    - target: {fileID: 424718, guid: 5ca80f4596fa44b87912a0592346d260, type: 2}
      propertyPath: m_LocalPosition.x
      value: 0
      objectReference: {fileID: 0}
    - target: {fileID: 424718, guid: 5ca80f4596fa44b87912a0592346d260, type: 2}
      propertyPath: m_LocalPosition.y
      value: 0
      objectReference: {fileID: 0}
    - target: {fileID: 424718, guid: 5ca80f4596fa44b87912a0592346d260, type: 2}
      propertyPath: m_LocalPosition.z
      value: 0
      objectReference: {fileID: 0}
    - target: {fileID: 424718, guid: 5ca80f4596fa44b87912a0592346d260, type: 2}
      propertyPath: m_LocalRotation.x
      value: 0
      objectReference: {fileID: 0}
    - target: {fileID: 424718, guid: 5ca80f4596fa44b87912a0592346d260, type: 2}
      propertyPath: m_LocalRotation.y
      value: 0
      objectReference: {fileID: 0}
    - target: {fileID: 424718, guid: 5ca80f4596fa44b87912a0592346d260, type: 2}
      propertyPath: m_LocalRotation.z
      value: 0
      objectReference: {fileID: 0}
    - target: {fileID: 424718, guid: 5ca80f4596fa44b87912a0592346d260, type: 2}
      propertyPath: m_LocalRotation.w
      value: 1
      objectReference: {fileID: 0}
    - target: {fileID: 424718, guid: 5ca80f4596fa44b87912a0592346d260, type: 2}
      propertyPath: m_RootOrder
      value: 1
      objectReference: {fileID: 0}
    m_RemovedComponents: []
  m_ParentPrefab: {fileID: 100100000, guid: 5ca80f4596fa44b87912a0592346d260, type: 2}
  m_IsPrefabParent: 0
--- !u!1 &441424306 stripped
GameObject:
  m_PrefabParentObject: {fileID: 1077609388879922, guid: f7f898dac82d8e94f826a159117b84c5,
    type: 2}
  m_PrefabInternal: {fileID: 1729887161}
--- !u!65 &441424309
BoxCollider:
  m_ObjectHideFlags: 0
  m_PrefabParentObject: {fileID: 0}
  m_PrefabInternal: {fileID: 0}
  m_GameObject: {fileID: 441424306}
  m_Material: {fileID: 0}
  m_IsTrigger: 0
  m_Enabled: 0
  serializedVersion: 2
  m_Size: {x: 0.25, y: 6.183559, z: 0.25}
  m_Center: {x: 0, y: 3.0917795, z: 0}
--- !u!1001 &706867417
Prefab:
  m_ObjectHideFlags: 0
  serializedVersion: 2
  m_Modification:
    m_TransformParent: {fileID: 0}
    m_Modifications:
    - target: {fileID: 498412, guid: 970dd4b9371394fb4890965f608d46fd, type: 2}
      propertyPath: m_LocalPosition.x
      value: 0
      objectReference: {fileID: 0}
    - target: {fileID: 498412, guid: 970dd4b9371394fb4890965f608d46fd, type: 2}
      propertyPath: m_LocalPosition.y
      value: 0
      objectReference: {fileID: 0}
    - target: {fileID: 498412, guid: 970dd4b9371394fb4890965f608d46fd, type: 2}
      propertyPath: m_LocalPosition.z
      value: 0
      objectReference: {fileID: 0}
    - target: {fileID: 498412, guid: 970dd4b9371394fb4890965f608d46fd, type: 2}
      propertyPath: m_LocalRotation.x
      value: 0
      objectReference: {fileID: 0}
    - target: {fileID: 498412, guid: 970dd4b9371394fb4890965f608d46fd, type: 2}
      propertyPath: m_LocalRotation.y
      value: 0
      objectReference: {fileID: 0}
    - target: {fileID: 498412, guid: 970dd4b9371394fb4890965f608d46fd, type: 2}
      propertyPath: m_LocalRotation.z
      value: 0
      objectReference: {fileID: 0}
    - target: {fileID: 498412, guid: 970dd4b9371394fb4890965f608d46fd, type: 2}
      propertyPath: m_LocalRotation.w
      value: 1
      objectReference: {fileID: 0}
    - target: {fileID: 498412, guid: 970dd4b9371394fb4890965f608d46fd, type: 2}
      propertyPath: m_RootOrder
      value: 0
      objectReference: {fileID: 0}
    - target: {fileID: 11414954, guid: 970dd4b9371394fb4890965f608d46fd, type: 2}
      propertyPath: vrModeEnabled
      value: 0
      objectReference: {fileID: 0}
    m_RemovedComponents: []
  m_ParentPrefab: {fileID: 100100000, guid: 970dd4b9371394fb4890965f608d46fd, type: 2}
  m_IsPrefabParent: 0
--- !u!1 &762842127
GameObject:
  m_ObjectHideFlags: 0
  m_PrefabParentObject: {fileID: 0}
  m_PrefabInternal: {fileID: 0}
  serializedVersion: 5
  m_Component:
  - component: {fileID: 762842129}
  - component: {fileID: 762842128}
  - component: {fileID: 762842130}
  m_Layer: 0
  m_Name: Music
  m_TagString: Untagged
  m_Icon: {fileID: 0}
  m_NavMeshLayer: 0
  m_StaticEditorFlags: 0
  m_IsActive: 1
--- !u!114 &762842128
MonoBehaviour:
  m_ObjectHideFlags: 0
  m_PrefabParentObject: {fileID: 0}
  m_PrefabInternal: {fileID: 0}
  m_GameObject: {fileID: 762842127}
  m_Enabled: 1
  m_EditorHideFlags: 0
  m_Script: {fileID: 11500000, guid: 6dbca64e524ea44f9b26142ec59aca8a, type: 3}
  m_Name: 
  m_EditorClassIdentifier: 
  bypassRoomEffects: 0
  directivityAlpha: 0
  directivitySharpness: 1
  listenerDirectivityAlpha: 0
  listenerDirectivitySharpness: 1
  gainDb: 0
  occlusionEnabled: 0
  playOnAwake: 1
  sourceClip: {fileID: 8300000, guid: a7e66d12e82b94222955642568bbe35e, type: 3}
  sourceLoop: 1
  sourceMute: 0
  sourcePitch: 1
  sourcePriority: 128
  sourceSpatialBlend: 0
  sourceDopplerLevel: 0
  sourceSpread: 360
  sourceVolume: 0
  sourceRolloffMode: 0
  sourceMaxDistance: 500
  sourceMinDistance: 1
  hrtfEnabled: 1
  audioSource: {fileID: 0}
--- !u!4 &762842129
Transform:
  m_ObjectHideFlags: 0
  m_PrefabParentObject: {fileID: 0}
  m_PrefabInternal: {fileID: 0}
  m_GameObject: {fileID: 762842127}
  m_LocalRotation: {x: 0, y: 0, z: 0, w: 1}
  m_LocalPosition: {x: 1.2925, y: 0.7220388, z: 2.421847}
  m_LocalScale: {x: 1, y: 1, z: 1}
  m_Children: []
  m_Father: {fileID: 0}
  m_RootOrder: 4
  m_LocalEulerAnglesHint: {x: 0, y: 0, z: 0}
--- !u!114 &762842130
MonoBehaviour:
  m_ObjectHideFlags: 0
  m_PrefabParentObject: {fileID: 0}
  m_PrefabInternal: {fileID: 0}
  m_GameObject: {fileID: 762842127}
  m_Enabled: 1
  m_EditorHideFlags: 0
  m_Script: {fileID: 11500000, guid: 08a5ebc9a4fdc4aa99afe3b4c92bd11e, type: 3}
  m_Name: 
  m_EditorClassIdentifier: 
  fadeSpeed: 4
  targetVolume: 0.3
--- !u!1001 &819810271
Prefab:
  m_ObjectHideFlags: 0
  serializedVersion: 2
  m_Modification:
    m_TransformParent: {fileID: 0}
    m_Modifications:
    - target: {fileID: 4033386956472444, guid: eb4599c0efa164d56be48ed93d8a4805, type: 2}
      propertyPath: m_LocalPosition.x
      value: -2.49
      objectReference: {fileID: 0}
    - target: {fileID: 4033386956472444, guid: eb4599c0efa164d56be48ed93d8a4805, type: 2}
      propertyPath: m_LocalPosition.y
      value: 1.61
      objectReference: {fileID: 0}
    - target: {fileID: 4033386956472444, guid: eb4599c0efa164d56be48ed93d8a4805, type: 2}
      propertyPath: m_LocalPosition.z
      value: 2.14
      objectReference: {fileID: 0}
    - target: {fileID: 4033386956472444, guid: eb4599c0efa164d56be48ed93d8a4805, type: 2}
      propertyPath: m_LocalRotation.x
      value: -0
      objectReference: {fileID: 0}
    - target: {fileID: 4033386956472444, guid: eb4599c0efa164d56be48ed93d8a4805, type: 2}
      propertyPath: m_LocalRotation.y
      value: 0.9285604
      objectReference: {fileID: 0}
    - target: {fileID: 4033386956472444, guid: eb4599c0efa164d56be48ed93d8a4805, type: 2}
      propertyPath: m_LocalRotation.z
      value: -0
      objectReference: {fileID: 0}
    - target: {fileID: 4033386956472444, guid: eb4599c0efa164d56be48ed93d8a4805, type: 2}
      propertyPath: m_LocalRotation.w
      value: 0.3711815
      objectReference: {fileID: 0}
    - target: {fileID: 4033386956472444, guid: eb4599c0efa164d56be48ed93d8a4805, type: 2}
      propertyPath: m_RootOrder
      value: 5
      objectReference: {fileID: 0}
    m_RemovedComponents: []
  m_ParentPrefab: {fileID: 100100000, guid: eb4599c0efa164d56be48ed93d8a4805, type: 2}
  m_IsPrefabParent: 0
--- !u!1 &1043980129 stripped
GameObject:
  m_PrefabParentObject: {fileID: 1367332264408106, guid: f7f898dac82d8e94f826a159117b84c5,
    type: 2}
  m_PrefabInternal: {fileID: 1729887161}
--- !u!65 &1043980132
BoxCollider:
  m_ObjectHideFlags: 0
  m_PrefabParentObject: {fileID: 0}
  m_PrefabInternal: {fileID: 0}
  m_GameObject: {fileID: 1043980129}
  m_Material: {fileID: 0}
  m_IsTrigger: 0
  m_Enabled: 0
  serializedVersion: 2
  m_Size: {x: 0.25, y: 6.183559, z: 0.25}
  m_Center: {x: 0, y: 3.0917795, z: 0}
--- !u!1001 &1146818445
Prefab:
  m_ObjectHideFlags: 0
  serializedVersion: 2
  m_Modification:
    m_TransformParent: {fileID: 0}
    m_Modifications:
    - target: {fileID: 4591702072750176, guid: 9e2e1b8aad2984e908e6e6354bf13182, type: 2}
      propertyPath: m_LocalPosition.x
      value: 7.26
      objectReference: {fileID: 0}
    - target: {fileID: 4591702072750176, guid: 9e2e1b8aad2984e908e6e6354bf13182, type: 2}
      propertyPath: m_LocalPosition.y
      value: 1.61
      objectReference: {fileID: 0}
    - target: {fileID: 4591702072750176, guid: 9e2e1b8aad2984e908e6e6354bf13182, type: 2}
      propertyPath: m_LocalPosition.z
      value: -10.4
      objectReference: {fileID: 0}
    - target: {fileID: 4591702072750176, guid: 9e2e1b8aad2984e908e6e6354bf13182, type: 2}
      propertyPath: m_LocalRotation.x
      value: -0
      objectReference: {fileID: 0}
    - target: {fileID: 4591702072750176, guid: 9e2e1b8aad2984e908e6e6354bf13182, type: 2}
      propertyPath: m_LocalRotation.y
      value: 0.34004727
      objectReference: {fileID: 0}
    - target: {fileID: 4591702072750176, guid: 9e2e1b8aad2984e908e6e6354bf13182, type: 2}
      propertyPath: m_LocalRotation.z
      value: -0
      objectReference: {fileID: 0}
    - target: {fileID: 4591702072750176, guid: 9e2e1b8aad2984e908e6e6354bf13182, type: 2}
      propertyPath: m_LocalRotation.w
      value: -0.9404084
      objectReference: {fileID: 0}
    - target: {fileID: 4591702072750176, guid: 9e2e1b8aad2984e908e6e6354bf13182, type: 2}
      propertyPath: m_RootOrder
      value: 7
      objectReference: {fileID: 0}
    - target: {fileID: 4591702072750176, guid: 9e2e1b8aad2984e908e6e6354bf13182, type: 2}
      propertyPath: m_LocalEulerAnglesHint.y
      value: 320.24
      objectReference: {fileID: 0}
    - target: {fileID: 4591702072750176, guid: 9e2e1b8aad2984e908e6e6354bf13182, type: 2}
      propertyPath: m_LocalScale.x
      value: 1
      objectReference: {fileID: 0}
    - target: {fileID: 4591702072750176, guid: 9e2e1b8aad2984e908e6e6354bf13182, type: 2}
      propertyPath: m_LocalScale.z
      value: 1
      objectReference: {fileID: 0}
    - target: {fileID: 23919290018129608, guid: 9e2e1b8aad2984e908e6e6354bf13182,
        type: 2}
      propertyPath: m_Materials.Array.data[0]
      value: 
      objectReference: {fileID: 2100000, guid: 6bb636fe14f124563972fa9cb2a5a06d, type: 2}
    - target: {fileID: 0}
      propertyPath: m_activeLightCount
      value: 4
      objectReference: {fileID: 0}
    - target: {fileID: 1628794661614152, guid: 9e2e1b8aad2984e908e6e6354bf13182, type: 2}
      propertyPath: m_Name
      value: Message-2By1-3
      objectReference: {fileID: 0}
    - target: {fileID: 4024610088920222, guid: 9e2e1b8aad2984e908e6e6354bf13182, type: 2}
      propertyPath: m_LocalScale.y
      value: 1.3105336
      objectReference: {fileID: 0}
    m_RemovedComponents:
    - {fileID: 0}
    - {fileID: 0}
  m_ParentPrefab: {fileID: 100100000, guid: 9e2e1b8aad2984e908e6e6354bf13182, type: 2}
  m_IsPrefabParent: 0
--- !u!1 &1712259178 stripped
GameObject:
  m_PrefabParentObject: {fileID: 1439698769952402, guid: f7f898dac82d8e94f826a159117b84c5,
    type: 2}
  m_PrefabInternal: {fileID: 1729887161}
--- !u!65 &1712259181
BoxCollider:
  m_ObjectHideFlags: 0
  m_PrefabParentObject: {fileID: 0}
  m_PrefabInternal: {fileID: 0}
  m_GameObject: {fileID: 1712259178}
  m_Material: {fileID: 0}
  m_IsTrigger: 0
  m_Enabled: 0
  serializedVersion: 2
  m_Size: {x: 0.25, y: 6.183559, z: 0.25}
  m_Center: {x: 0, y: 3.0917795, z: 0}
--- !u!1001 &1729887161
Prefab:
  m_ObjectHideFlags: 0
  serializedVersion: 2
  m_Modification:
    m_TransformParent: {fileID: 0}
    m_Modifications:
    - target: {fileID: 4026525760604544, guid: f7f898dac82d8e94f826a159117b84c5, type: 2}
      propertyPath: m_LocalPosition.x
      value: 0
      objectReference: {fileID: 0}
    - target: {fileID: 4026525760604544, guid: f7f898dac82d8e94f826a159117b84c5, type: 2}
      propertyPath: m_LocalPosition.y
      value: 0
      objectReference: {fileID: 0}
    - target: {fileID: 4026525760604544, guid: f7f898dac82d8e94f826a159117b84c5, type: 2}
      propertyPath: m_LocalPosition.z
      value: 0
      objectReference: {fileID: 0}
    - target: {fileID: 4026525760604544, guid: f7f898dac82d8e94f826a159117b84c5, type: 2}
      propertyPath: m_LocalRotation.x
      value: 0
      objectReference: {fileID: 0}
    - target: {fileID: 4026525760604544, guid: f7f898dac82d8e94f826a159117b84c5, type: 2}
      propertyPath: m_LocalRotation.y
      value: 0
      objectReference: {fileID: 0}
    - target: {fileID: 4026525760604544, guid: f7f898dac82d8e94f826a159117b84c5, type: 2}
      propertyPath: m_LocalRotation.z
      value: 0
      objectReference: {fileID: 0}
    - target: {fileID: 4026525760604544, guid: f7f898dac82d8e94f826a159117b84c5, type: 2}
      propertyPath: m_LocalRotation.w
      value: 1
      objectReference: {fileID: 0}
    - target: {fileID: 4026525760604544, guid: f7f898dac82d8e94f826a159117b84c5, type: 2}
      propertyPath: m_RootOrder
      value: 3
      objectReference: {fileID: 0}
    - target: {fileID: 114112469092091622, guid: f7f898dac82d8e94f826a159117b84c5,
        type: 2}
      propertyPath: effectorA.source
      value: 
      objectReference: {fileID: 0}
    - target: {fileID: 33330052583141328, guid: f7f898dac82d8e94f826a159117b84c5,
        type: 2}
      propertyPath: m_Mesh
      value: 
      objectReference: {fileID: 4300000, guid: 8a3cf1289d40f4fb1b4e0402e436b4d5, type: 2}
    - target: {fileID: 114112469092091622, guid: f7f898dac82d8e94f826a159117b84c5,
        type: 2}
      propertyPath: ActivationDecay
      value: 0
      objectReference: {fileID: 0}
    - target: {fileID: 114112469092091622, guid: f7f898dac82d8e94f826a159117b84c5,
        type: 2}
      propertyPath: effectorA.decaySpeed
      value: 0.01
      objectReference: {fileID: 0}
    - target: {fileID: 114112469092091622, guid: f7f898dac82d8e94f826a159117b84c5,
        type: 2}
      propertyPath: effectorA.targetGrowthSpeed
      value: 0.75
      objectReference: {fileID: 0}
    - target: {fileID: 114112469092091622, guid: f7f898dac82d8e94f826a159117b84c5,
        type: 2}
      propertyPath: effectorA.maxRadius
      value: 8
      objectReference: {fileID: 0}
    - target: {fileID: 114503100481432822, guid: f7f898dac82d8e94f826a159117b84c5,
        type: 2}
      propertyPath: activationRate
      value: 0.1
      objectReference: {fileID: 0}
    - target: {fileID: 114333176660767678, guid: f7f898dac82d8e94f826a159117b84c5,
        type: 2}
      propertyPath: activationRate
      value: 0.1
      objectReference: {fileID: 0}
    - target: {fileID: 114763676414390172, guid: f7f898dac82d8e94f826a159117b84c5,
        type: 2}
      propertyPath: activationRate
      value: 0.1
      objectReference: {fileID: 0}
    - target: {fileID: 114098256651527758, guid: f7f898dac82d8e94f826a159117b84c5,
        type: 2}
      propertyPath: activationRate
      value: 0.1
      objectReference: {fileID: 0}
    - target: {fileID: 114413950341538804, guid: f7f898dac82d8e94f826a159117b84c5,
        type: 2}
      propertyPath: activationRate
      value: 0.1
      objectReference: {fileID: 0}
    - target: {fileID: 114914079892088986, guid: f7f898dac82d8e94f826a159117b84c5,
        type: 2}
      propertyPath: activationRate
      value: 0.1
      objectReference: {fileID: 0}
    - target: {fileID: 114874480478332012, guid: f7f898dac82d8e94f826a159117b84c5,
        type: 2}
      propertyPath: activationRate
      value: 0.1
      objectReference: {fileID: 0}
    - target: {fileID: 114010877177081720, guid: f7f898dac82d8e94f826a159117b84c5,
        type: 2}
      propertyPath: activationRate
      value: 0.1
      objectReference: {fileID: 0}
    - target: {fileID: 114077077053452384, guid: f7f898dac82d8e94f826a159117b84c5,
        type: 2}
      propertyPath: activationRate
      value: 0.1
      objectReference: {fileID: 0}
    - target: {fileID: 114064893488761248, guid: f7f898dac82d8e94f826a159117b84c5,
        type: 2}
      propertyPath: activationRate
      value: 0.1
      objectReference: {fileID: 0}
    - target: {fileID: 114112469092091622, guid: f7f898dac82d8e94f826a159117b84c5,
        type: 2}
      propertyPath: effectorA.growthSpeedPrewarm
      value: 1
      objectReference: {fileID: 0}
    - target: {fileID: 114112469092091622, guid: f7f898dac82d8e94f826a159117b84c5,
        type: 2}
      propertyPath: effectorA.growthSpeed
      value: 0.7401685
      objectReference: {fileID: 0}
    - target: {fileID: 114112469092091622, guid: f7f898dac82d8e94f826a159117b84c5,
        type: 2}
      propertyPath: effectorA.radius
      value: 9.999981
      objectReference: {fileID: 0}
    - target: {fileID: 114112469092091622, guid: f7f898dac82d8e94f826a159117b84c5,
        type: 2}
      propertyPath: effectorA.position.x
      value: 6.7327657
      objectReference: {fileID: 0}
    - target: {fileID: 114112469092091622, guid: f7f898dac82d8e94f826a159117b84c5,
        type: 2}
      propertyPath: effectorA.position.y
      value: 2.599843
      objectReference: {fileID: 0}
    - target: {fileID: 114112469092091622, guid: f7f898dac82d8e94f826a159117b84c5,
        type: 2}
      propertyPath: effectorA.position.z
      value: -10.422429
      objectReference: {fileID: 0}
    - target: {fileID: 114112469092091622, guid: f7f898dac82d8e94f826a159117b84c5,
        type: 2}
      propertyPath: effectorA.effectorProperties.x
      value: 6.7327657
      objectReference: {fileID: 0}
    - target: {fileID: 114112469092091622, guid: f7f898dac82d8e94f826a159117b84c5,
        type: 2}
      propertyPath: effectorA.effectorProperties.y
      value: 2.599843
      objectReference: {fileID: 0}
    - target: {fileID: 114112469092091622, guid: f7f898dac82d8e94f826a159117b84c5,
        type: 2}
      propertyPath: effectorA.effectorProperties.z
      value: -10.422429
      objectReference: {fileID: 0}
    - target: {fileID: 114112469092091622, guid: f7f898dac82d8e94f826a159117b84c5,
        type: 2}
      propertyPath: effectorA.effectorProperties.w
      value: 9.999981
      objectReference: {fileID: 0}
    m_RemovedComponents: []
  m_ParentPrefab: {fileID: 100100000, guid: f7f898dac82d8e94f826a159117b84c5, type: 2}
  m_IsPrefabParent: 0
--- !u!1 &1816044667 stripped
GameObject:
  m_PrefabParentObject: {fileID: 1886482047262516, guid: f7f898dac82d8e94f826a159117b84c5,
    type: 2}
  m_PrefabInternal: {fileID: 1729887161}
--- !u!65 &1816044670
BoxCollider:
  m_ObjectHideFlags: 0
  m_PrefabParentObject: {fileID: 0}
  m_PrefabInternal: {fileID: 0}
  m_GameObject: {fileID: 1816044667}
  m_Material: {fileID: 0}
  m_IsTrigger: 0
  m_Enabled: 0
  serializedVersion: 2
  m_Size: {x: 0.25, y: 6.183559, z: 0.25}
  m_Center: {x: 0, y: 3.0917795, z: 0}
--- !u!1 &1883571575 stripped
GameObject:
  m_PrefabParentObject: {fileID: 1597679390001180, guid: f7f898dac82d8e94f826a159117b84c5,
    type: 2}
  m_PrefabInternal: {fileID: 1729887161}
--- !u!65 &1883571578
BoxCollider:
  m_ObjectHideFlags: 0
  m_PrefabParentObject: {fileID: 0}
  m_PrefabInternal: {fileID: 0}
  m_GameObject: {fileID: 1883571575}
  m_Material: {fileID: 0}
  m_IsTrigger: 0
  m_Enabled: 0
  serializedVersion: 2
  m_Size: {x: 0.25, y: 6.183559, z: 0.25}
  m_Center: {x: 0, y: 3.0917795, z: 0}
